spi_core_tb.vcd
$date
	Fri Oct 03 11:43:44 2025
$end
$version
	QuestaSim Version 10.4c
$end
$timescale
	1ps
$end

$scope module tb $end
$var reg 1 ! button_0 $end
$var reg 1 " button_1 $end
$var reg 1 # clk_100 $end
$var reg 1 $ s_rst $end
$var reg 1 % a_rst $end
$var reg 1 & SCK_HP $end
$var reg 1 ' SCK_LP $end
$var reg 1 ( SCK_HN $end
$var reg 1 ) SCK_LN $end
$var reg 1 * CS $end
$var reg 8 + MOSI [7:0] $end

$scope module dut $end
$var wire 1 , button_0 $end
$var wire 1 - button_1 $end
$var wire 1 . clk_100 $end
$var wire 1 / s_rst $end
$var wire 1 0 a_rst $end
$var reg 1 1 SCK_HP $end
$var reg 1 2 SCK_LP $end
$var reg 1 3 SCK_HN $end
$var reg 1 4 SCK_LN $end
$var reg 1 5 CS $end
$var reg 8 6 MOSI [7:0] $end
$var reg 1 7 next_count_wire $end
$var reg 1 8 start_send_wire $end
$var reg 1 9 ready_wire $end
$var reg 1 : valid_wire $end
$var reg 8 ; data_wire [7:0] $end

$scope module handler $end
$var wire 1 , button_0 $end
$var wire 1 - button_1 $end
$var wire 1 . clk_100 $end
$var wire 1 / s_rst $end
$var wire 1 0 a_rst $end
$var reg 1 < next_count $end
$var reg 1 = start_send $end
$var reg 1 > button_0_prev $end
$var reg 1 ? button_1_prev $end
$var reg 3 @ button_0_sync [2:0] $end
$var reg 3 A button_1_sync [2:0] $end
$upscope $end

$scope module former $end
$var parameter 32 B P_DATA_WIDTH $end
$var wire 1 . clk_100 $end
$var wire 1 / s_rst $end
$var wire 1 0 a_rst $end
$var wire 1 C next_count $end
$var wire 1 D start_send $end
$var wire 1 E ready $end
$var reg 1 F valid $end
$var reg 8 G data [7:0] $end
$var reg 8 H data_cnt [7:0] $end
$upscope $end

$scope module transmitter $end
$var wire 1 . clk_100 $end
$var wire 1 / s_rst $end
$var wire 1 0 a_rst $end
$var wire 1 I valid $end
$var wire 1 J data [7] $end
$var wire 1 K data [6] $end
$var wire 1 L data [5] $end
$var wire 1 M data [4] $end
$var wire 1 N data [3] $end
$var wire 1 O data [2] $end
$var wire 1 P data [1] $end
$var wire 1 Q data [0] $end
$var reg 1 R ready $end
$var reg 1 S SCK_HP $end
$var reg 1 T SCK_LP $end
$var reg 1 U SCK_HN $end
$var reg 1 V SCK_LN $end
$var reg 1 W CS $end
$var reg 8 X MOSI [7:0] $end
$var reg 1 Y sck $end
$var reg 1 Z shift_en $end
$var reg 3 [ bit_cnt [2:0] $end
$var reg 1 \ div_cnt [0:0] $end
$var reg 8 ] shift_reg [7:0] $end
$upscope $end
$upscope $end
$upscope $end
$enddefinitions $end
#0
$dumpvars
0!
0"
0#
1$
1%
1&
0'
1(
0)
1*
b0 +
11
02
13
04
15
b0 6
07
08
19
0:
b0 ;
0<
0=
0>
0?
b0 @
b0 A
0F
b0 G
b0 H
1R
1S
0T
1U
0V
1W
b0 X
0Y
0Z
b0 [
b0 \
b0 ]
b1000 B
10
1/
0.
0-
0,
0Q
0P
0O
0N
0M
0L
0K
0J
0I
1E
0D
0C
$end
#5000
1#
1.
#10000
0#
0.
#15000
1#
1.
#20000
0%
0#
00
0.
#25000
1#
1.
#30000
0#
0.
#35000
1#
1.
#40000
0$
0#
0/
0.
#45000
1#
1.
#50000
0#
0.
#55000
1#
1.
#60000
0#
0.
#65000
1#
1.
#70000
0#
0.
#75000
1#
1.
#80000
0#
0.
#85000
1#
1.
#90000
1!
0#
1,
0.
#95000
1#
1.
b1 @
#100000
0!
0#
0,
0.
#105000
1#
1.
b10 @
#110000
0#
0.
#115000
1#
1.
b100 @
#120000
0#
0.
#125000
1#
1.
b0 @
1>
1<
17
1C
#130000
0#
0.
#135000
1#
1.
b1 H
0>
0<
07
0C
#140000
0#
0.
#145000
1#
1.
#150000
0#
0.
#155000
1#
1.
#160000
0#
0.
#165000
1#
1.
#170000
0#
0.
#175000
1#
1.
#180000
0#
0.
#185000
1#
1.
#190000
0#
0.
#195000
1#
1.
#200000
0#
0.
#205000
1#
1.
#210000
0#
0.
#215000
1#
1.
#220000
0#
0.
#225000
1#
1.
#230000
0#
0.
#235000
1#
1.
#240000
0#
0.
#245000
1#
1.
#250000
0#
0.
#255000
1#
1.
#260000
0#
0.
#265000
1#
1.
#270000
0#
0.
#275000
1#
1.
#280000
0#
0.
#285000
1#
1.
#290000
0#
0.
#295000
1#
1.
#300000
1"
0#
1-
0.
#305000
1#
1.
b1 A
#310000
0"
0#
0-
0.
#315000
1#
1.
b10 A
#320000
0#
0.
#325000
1#
1.
b100 A
#330000
0#
0.
#335000
1#
1.
b0 A
1?
1=
18
1D
1F
1:
1I
#340000
0#
0.
#345000
1#
1.
1Z
b111 [
0R
0W
b1 G
0?
0=
08
b1 ;
05
09
0*
1Q
0E
0D
0F
0S
1V
14
01
0:
0&
1)
0I
#350000
0#
0.
#355000
1#
1.
1Y
1S
1T
0U
0V
04
03
12
11
1&
1'
0(
0)
#360000
0#
0.
#365000
1#
1.
0Y
b110 [
0S
0T
1U
1V
14
13
02
01
0&
0'
1(
1)
#370000
0#
0.
#375000
1#
1.
1Y
1S
1T
0U
0V
04
03
12
11
1&
1'
0(
0)
#380000
0#
0.
#385000
1#
1.
0Y
b101 [
0S
0T
1U
1V
14
13
02
01
0&
0'
1(
1)
#390000
0#
0.
#395000
1#
1.
1Y
1S
1T
0U
0V
04
03
12
11
1&
1'
0(
0)
#400000
0#
0.
#405000
1#
1.
0Y
b100 [
0S
0T
1U
1V
14
13
02
01
0&
0'
1(
1)
#410000
0#
0.
#415000
1#
1.
1Y
1S
1T
0U
0V
04
03
12
11
1&
1'
0(
0)
#420000
0#
0.
#425000
1#
1.
0Y
b11 [
0S
0T
1U
1V
14
13
02
01
0&
0'
1(
1)
#430000
0#
0.
#435000
1#
1.
1Y
1S
1T
0U
0V
04
03
12
11
1&
1'
0(
0)
#440000
0#
0.
#445000
1#
1.
0Y
b10 [
0S
0T
1U
1V
14
13
02
01
0&
0'
1(
1)
#450000
0#
0.
#455000
1#
1.
1Y
1S
1T
0U
0V
04
03
12
11
1&
1'
0(
0)
#460000
0#
0.
#465000
1#
1.
0Y
b1 [
0S
0T
1U
1V
14
13
02
01
0&
0'
1(
1)
#470000
0#
0.
#475000
1#
1.
1Y
1S
1T
0U
0V
04
03
12
11
1&
1'
0(
0)
#480000
0#
0.
#485000
1#
1.
0Y
b0 [
0S
0T
1U
1V
14
13
02
01
0&
0'
1(
1)
#490000
0#
0.
#495000
1#
1.
1Y
1S
1T
0U
0V
04
03
12
11
1&
1'
0(
0)
#500000
0#
0.
#505000
1#
1.
0Y
0Z
1R
1W
15
19
1*
1E
1U
0T
02
13
1(
0'
