spi_core_tb.vcd
$date
	Mon Oct 06 11:35:10 2025
$end
$version
	QuestaSim Version 10.4c
$end
$timescale
	1ps
$end

$scope module tb $end
$var reg 1 ! button_0 $end
$var reg 1 " button_1 $end
$var reg 1 # clk_100 $end
$var reg 1 $ s_rst $end
$var reg 1 % a_rst $end
$var reg 1 & SCK_HP $end
$var reg 1 ' SCK_LP $end
$var reg 1 ( SCK_HN $end
$var reg 1 ) SCK_LN $end
$var reg 1 * CS $end
$var reg 1 + MOSI $end

$scope module dut $end
$var wire 1 , button_0 $end
$var wire 1 - button_1 $end
$var wire 1 . clk_100 $end
$var wire 1 / s_rst $end
$var wire 1 0 a_rst $end
$var reg 1 1 SCK_HP $end
$var reg 1 2 SCK_LP $end
$var reg 1 3 SCK_HN $end
$var reg 1 4 SCK_LN $end
$var reg 1 5 CS $end
$var reg 1 6 MOSI $end
$var reg 1 7 next_count_wire $end
$var reg 1 8 start_send_wire $end
$var reg 1 9 ready_wire $end
$var reg 1 : valid_wire $end
$var reg 1 ; sck_wire $end
$var reg 8 < data_wire [7:0] $end

$scope module handler $end
$var wire 1 , button_0 $end
$var wire 1 - button_1 $end
$var wire 1 . clk_100 $end
$var wire 1 / s_rst $end
$var wire 1 0 a_rst $end
$var reg 1 = next_count_o $end
$var reg 1 > start_send_o $end
$var reg 1 ? next_count $end
$var reg 1 @ start_send $end

$scope module sync_fd_button_0 $end
$var wire 1 . clk_i $end
$var wire 1 , data_i $end
$var reg 1 A data_sync_o $end
$var reg 1 B data_sync_pe_o $end
$var reg 1 C data_sync_ne_o $end
$var reg 3 D data_reg [2:0] $end
$upscope $end

$scope module sync_fd_button_1 $end
$var wire 1 . clk_i $end
$var wire 1 - data_i $end
$var reg 1 E data_sync_o $end
$var reg 1 F data_sync_pe_o $end
$var reg 1 G data_sync_ne_o $end
$var reg 3 H data_reg [2:0] $end
$upscope $end
$upscope $end

$scope module former $end
$var wire 1 . clk_100 $end
$var wire 1 / s_rst $end
$var wire 1 0 a_rst $end
$var wire 1 I next_count $end
$var wire 1 J start_send $end
$var wire 1 K ready $end
$var reg 1 L valid $end
$var reg 8 M data [7:0] $end
$var reg 8 N data_cnt [7:0] $end
$upscope $end

$scope module clk_divider $end
$var wire 1 . clk_100 $end
$var wire 1 / s_rst $end
$var wire 1 0 a_rst $end
$var reg 1 O sck_out $end
$var reg 1 P clk_cnt [0:0] $end
$upscope $end

$scope module transmitter $end
$var wire 1 . clk_100 $end
$var wire 1 / s_rst $end
$var wire 1 0 a_rst $end
$var wire 1 Q sck_in $end
$var wire 1 R valid $end
$var wire 1 S data_in [7] $end
$var wire 1 T data_in [6] $end
$var wire 1 U data_in [5] $end
$var wire 1 V data_in [4] $end
$var wire 1 W data_in [3] $end
$var wire 1 X data_in [2] $end
$var wire 1 Y data_in [1] $end
$var wire 1 Z data_in [0] $end
$var reg 1 [ ready $end
$var reg 1 \ SCK_HP $end
$var reg 1 ] SCK_LP $end
$var reg 1 ^ SCK_HN $end
$var reg 1 _ SCK_LN $end
$var reg 1 ` CS $end
$var reg 1 a MOSI $end
$var reg 3 b bit_cnt [2:0] $end
$var reg 8 c shift_reg [7:0] $end
$var reg 2 d state [1:0] $end
$var reg 2 e next_state [1:0] $end
$upscope $end
$upscope $end
$upscope $end
$enddefinitions $end
#0
$dumpvars
0!
0"
0#
1$
1%
1&
0'
1(
0)
1*
0+
11
02
13
04
15
06
07
08
19
0:
0;
b0 <
0=
0>
x?
x@
xA
xB
xC
bx D
xE
xF
xG
bx H
0L
b0 M
b0 N
0O
b0 P
1[
1\
0]
1^
0_
1`
0a
b0 b
b11111111 c
b0 d
b0 e
10
1/
0.
0-
0,
0Z
0Y
0X
0W
0V
0U
0T
0S
0R
0Q
1K
0J
0I
$end
#5000
1#
1.
bx0 D
bx0 H
#10000
0#
0.
#15000
1#
1.
bx00 H
bx00 D
0C
0G
#20000
0%
0#
00
0.
1_
0^
03
14
1)
0(
#25000
1#
1.
b0 D
b0 H
0E
0F
0A
0B
0?
0@
#30000
0#
0.
#35000
1#
1.
#40000
0$
0#
0/
0.
#45000
1#
1.
1O
1;
1Q
#50000
0#
0.
0_
1^
13
04
0)
1(
#55000
1#
1.
1]
0\
0O
0;
01
12
1'
0&
0Q
#60000
0#
0.
1_
0^
03
14
1)
0(
#65000
1#
1.
1O
0]
1\
11
02
1;
0'
1&
1Q
#70000
0#
0.
0_
1^
13
04
0)
1(
#75000
1#
1.
1]
0\
0O
0;
01
12
1'
0&
0Q
#80000
0#
0.
1_
0^
03
14
1)
0(
#85000
1#
1.
1O
0]
1\
11
02
1;
0'
1&
1Q
#90000
1!
0#
1,
0.
0_
1^
13
04
0)
1(
#95000
1#
1.
b1 D
1]
0\
0O
0;
01
12
1'
0&
0Q
#100000
0!
0#
0,
0.
1_
0^
03
14
1)
0(
#105000
1#
1.
1O
0]
1\
b0 D
b10 D
1C
11
02
1;
0'
1&
1Q
#110000
0#
0.
0_
1^
13
04
0)
1(
#115000
1#
1.
b0 D
b100 D
1]
0\
0O
0;
01
12
1A
1B
0C
1?
1'
0&
0Q
#120000
0#
0.
1_
0^
03
14
1)
0(
#125000
1#
1.
1=
1O
0]
1\
b0 D
0A
0B
11
02
1;
17
0'
1&
0?
1Q
1I
#130000
0#
0.
0_
1^
13
04
0)
1(
#135000
1#
1.
b1 N
1]
0\
0O
0=
07
0;
01
12
1'
0&
0I
0Q
#140000
0#
0.
1_
0^
03
14
1)
0(
#145000
1#
1.
1O
0]
1\
11
02
1;
0'
1&
1Q
#150000
0#
0.
0_
1^
13
04
0)
1(
#155000
1#
1.
1]
0\
0O
0;
01
12
1'
0&
0Q
#160000
0#
0.
1_
0^
03
14
1)
0(
#165000
1#
1.
1O
0]
1\
11
02
1;
0'
1&
1Q
#170000
0#
0.
0_
1^
13
04
0)
1(
#175000
1#
1.
1]
0\
0O
0;
01
12
1'
0&
0Q
#180000
0#
0.
1_
0^
03
14
1)
0(
#185000
1#
1.
1O
0]
1\
11
02
1;
0'
1&
1Q
#190000
0#
0.
0_
1^
13
04
0)
1(
#195000
1#
1.
1]
0\
0O
0;
01
12
1'
0&
0Q
#200000
0#
0.
1_
0^
03
14
1)
0(
#205000
1#
1.
1O
0]
1\
11
02
1;
0'
1&
1Q
#210000
0#
0.
0_
1^
13
04
0)
1(
#215000
1#
1.
1]
0\
0O
0;
01
12
1'
0&
0Q
#220000
0#
0.
1_
0^
03
14
1)
0(
#225000
1#
1.
1O
0]
1\
11
02
1;
0'
1&
1Q
#230000
0#
0.
0_
1^
13
04
0)
1(
#235000
1#
1.
1]
0\
0O
0;
01
12
1'
0&
0Q
#240000
0#
0.
1_
0^
03
14
1)
0(
#245000
1#
1.
1O
0]
1\
11
02
1;
0'
1&
1Q
#250000
0#
0.
0_
1^
13
04
0)
1(
#255000
1#
1.
1]
0\
0O
0;
01
12
1'
0&
0Q
#260000
0#
0.
1_
0^
03
14
1)
0(
#265000
1#
1.
1O
0]
1\
11
02
1;
0'
1&
1Q
#270000
0#
0.
0_
1^
13
04
0)
1(
#275000
1#
1.
1]
0\
0O
0;
01
12
1'
0&
0Q
#280000
0#
0.
1_
0^
03
14
1)
0(
#285000
1#
1.
1O
0]
1\
11
02
1;
0'
1&
1Q
#290000
0#
0.
0_
1^
13
04
0)
1(
#295000
1#
1.
1]
0\
0O
0;
01
12
1'
0&
0Q
#300000
1"
0#
1-
0.
1_
0^
03
14
1)
0(
#305000
1#
1.
b1 H
1O
0]
1\
11
02
1;
0'
1&
1Q
#310000
0"
0#
0-
0.
0_
1^
13
04
0)
1(
#315000
1#
1.
1]
0\
0O
b0 H
b10 H
1G
0;
01
12
1'
0&
0Q
#320000
0#
0.
1_
0^
03
14
1)
0(
#325000
1#
1.
b0 H
b100 H
1O
0]
1\
11
02
1;
1E
1F
0G
1@
0'
1&
1Q
#330000
0#
0.
0_
1^
13
04
0)
1(
#335000
1#
1.
1>
1]
0\
0O
b0 H
0E
0F
0;
01
12
18
1'
0&
0@
0Q
1J
#340000
0#
0.
1_
0^
03
14
1)
0(
#345000
1#
1.
1L
1:
1R
1O
0]
1\
0>
b1 e
08
11
02
1;
0'
1&
0J
1Q
#350000
0#
0.
0_
1^
13
04
0)
1(
#355000
1#
1.
0L
0:
0R
b1 d
1]
0\
0O
b1 M
b0 e
b1 <
0;
01
12
1'
0&
1Z
0Q
b10 e
#360000
0#
0.
1_
0^
03
14
1)
0(
#365000
1#
1.
0`
b1 c
0[
1O
0]
1\
b10 d
11
02
1;
09
05
0*
0'
1&
1Q
0K
b11 e
#370000
0#
0.
0_
1^
13
04
0)
1(
#375000
1#
1.
b11 d
1]
0\
0O
b1 b
0;
01
12
1'
0&
0Q
#380000
0#
0.
1_
0^
03
14
1)
0(
#385000
1#
1.
1O
0]
1\
11
02
1;
0'
1&
1Q
#390000
0#
0.
0_
1^
13
04
0)
1(
#395000
1#
1.
b10 b
1]
0\
0O
0;
01
12
1'
0&
0Q
#400000
0#
0.
1_
0^
03
14
1)
0(
#405000
1#
1.
1O
0]
1\
11
02
1;
0'
1&
1Q
#410000
0#
0.
0_
1^
13
04
0)
1(
#415000
1#
1.
b11 b
1]
0\
0O
0;
01
12
1'
0&
0Q
#420000
0#
0.
1_
0^
03
14
1)
0(
#425000
1#
1.
1O
0]
1\
11
02
1;
0'
1&
1Q
#430000
0#
0.
0_
1^
13
04
0)
1(
#435000
1#
1.
b100 b
1]
0\
0O
0;
01
12
1'
0&
0Q
#440000
0#
0.
1_
0^
03
14
1)
0(
#445000
1#
1.
1O
0]
1\
11
02
1;
0'
1&
1Q
#450000
0#
0.
0_
1^
13
04
0)
1(
#455000
1#
1.
b101 b
1]
0\
0O
0;
01
12
1'
0&
0Q
#460000
0#
0.
1_
0^
03
14
1)
0(
#465000
1#
1.
1O
0]
1\
11
02
1;
0'
1&
1Q
#470000
0#
0.
0_
1^
13
04
0)
1(
#475000
1#
1.
b110 b
1]
0\
0O
0;
01
12
1'
0&
0Q
#480000
0#
0.
1_
0^
03
14
1)
0(
#485000
1#
1.
1O
0]
1\
11
02
1;
0'
1&
1Q
#490000
0#
0.
0_
1^
13
04
0)
1(
#495000
1#
1.
b111 b
1]
0\
0O
0;
01
12
1'
0&
0Q
#500000
0#
0.
1_
0^
03
14
1)
0(
#505000
1#
1.
1O
0]
1\
11
02
1;
0'
1&
1Q
#510000
0#
0.
0_
1^
13
04
0)
1(
#515000
1#
1.
b0 b
1]
0\
0O
0;
01
12
1'
0&
0Q
#520000
0#
0.
1_
0^
03
14
1)
0(
#525000
1#
1.
1O
0]
1\
11
02
1;
0'
1&
1Q
#530000
0#
0.
0_
1^
13
04
0)
1(
#535000
1#
1.
b1 b
1]
0\
0O
0;
01
12
1'
0&
0Q
#540000
0#
0.
1_
0^
03
14
1)
0(
#545000
1#
1.
1O
0]
1\
11
02
1;
0'
1&
1Q
#550000
0#
0.
0_
1^
13
04
0)
1(
#555000
1#
1.
b10 b
1]
0\
0O
0;
01
12
1'
0&
0Q
#560000
0#
0.
1_
0^
03
14
1)
0(
#565000
1#
1.
1O
0]
1\
11
02
1;
0'
1&
1Q
#570000
0#
0.
0_
1^
13
04
0)
1(
#575000
1#
1.
b11 b
1]
0\
0O
0;
01
12
1'
0&
0Q
#580000
0#
0.
1_
0^
03
14
1)
0(
#585000
1#
1.
1O
0]
1\
11
02
1;
0'
1&
1Q
#590000
0#
0.
0_
1^
13
04
0)
1(
#595000
1#
1.
b100 b
1]
0\
0O
0;
01
12
1'
0&
0Q
#600000
0#
0.
1_
0^
03
14
1)
0(
#605000
1#
1.
1O
0]
1\
11
02
1;
0'
1&
1Q
#610000
0#
0.
0_
1^
13
04
0)
1(
#615000
1#
1.
b101 b
1]
0\
0O
0;
01
12
1'
0&
0Q
#620000
0#
0.
1_
0^
03
14
1)
0(
#625000
1#
1.
1O
0]
1\
11
02
1;
0'
1&
1Q
#630000
0#
0.
0_
1^
13
04
0)
1(
#635000
1#
1.
b110 b
1]
0\
0O
0;
01
12
1'
0&
0Q
#640000
0#
0.
1_
0^
03
14
1)
0(
#645000
1#
1.
1O
0]
1\
11
02
1;
0'
1&
1Q
#650000
0#
0.
0_
1^
13
04
0)
1(
#655000
1#
1.
b111 b
1]
0\
0O
0;
01
12
1'
0&
0Q
#660000
0#
0.
1_
0^
03
14
1)
0(
#665000
1#
1.
1O
0]
1\
11
02
1;
0'
1&
1Q
#670000
0#
0.
0_
1^
13
04
0)
1(
#675000
1#
1.
b0 b
1]
0\
0O
0;
01
12
1'
0&
0Q
#680000
0#
0.
1_
0^
03
14
1)
0(
#685000
1#
1.
1O
0]
1\
11
02
1;
0'
1&
1Q
#690000
0#
0.
0_
1^
13
04
0)
1(
#695000
1#
1.
b1 b
1]
0\
0O
0;
01
12
1'
0&
0Q
#700000
0#
0.
1_
0^
03
14
1)
0(
#705000
1#
1.
1O
0]
1\
11
02
1;
0'
1&
1Q
#710000
0#
0.
0_
1^
13
04
0)
1(
#715000
1#
1.
b10 b
1]
0\
0O
0;
01
12
1'
0&
0Q
#720000
0#
0.
1_
0^
03
14
1)
0(
#725000
1#
1.
1O
0]
1\
11
02
1;
0'
1&
1Q
#730000
0#
0.
0_
1^
13
04
0)
1(
#735000
1#
1.
b11 b
1]
0\
0O
0;
01
12
1'
0&
0Q
#740000
0#
0.
1_
0^
03
14
1)
0(
#745000
1#
1.
1O
0]
1\
11
02
1;
0'
1&
1Q
#750000
0#
0.
0_
1^
13
04
0)
1(
#755000
1#
1.
b100 b
1]
0\
0O
0;
01
12
1'
0&
0Q
#760000
0#
0.
1_
0^
03
14
1)
0(
#765000
1#
1.
1O
0]
1\
11
02
1;
0'
1&
1Q
#770000
0#
0.
0_
1^
13
04
0)
1(
#775000
1#
1.
b101 b
1]
0\
0O
0;
01
12
1'
0&
0Q
#780000
0#
0.
1_
0^
03
14
1)
0(
#785000
1#
1.
1O
0]
1\
11
02
1;
0'
1&
1Q
#790000
0#
0.
0_
1^
13
04
0)
1(
#795000
1#
1.
b110 b
1]
0\
0O
0;
01
12
1'
0&
0Q
#800000
0#
0.
1_
0^
03
14
1)
0(
#805000
1#
1.
1O
0]
1\
11
02
1;
0'
1&
1Q
#810000
0#
0.
0_
1^
13
04
0)
1(
#815000
1#
1.
b111 b
1]
0\
0O
0;
01
12
1'
0&
0Q
#820000
0#
0.
1_
0^
03
14
1)
0(
#825000
1#
1.
1O
0]
1\
11
02
1;
0'
1&
1Q
#830000
0#
0.
0_
1^
13
04
0)
1(
#835000
1#
1.
b0 b
1]
0\
0O
0;
01
12
1'
0&
0Q
#840000
0#
0.
1_
0^
03
14
1)
0(
#845000
1#
1.
1O
0]
1\
11
02
1;
0'
1&
1Q
#850000
0#
0.
0_
1^
13
04
0)
1(
#855000
1#
1.
b1 b
1]
0\
0O
0;
01
12
1'
0&
0Q
#860000
0#
0.
1_
0^
03
14
1)
0(
#865000
1#
1.
1O
0]
1\
11
02
1;
0'
1&
1Q
#870000
0#
0.
0_
1^
13
04
0)
1(
#875000
1#
1.
b10 b
1]
0\
0O
0;
01
12
1'
0&
0Q
#880000
0#
0.
1_
0^
03
14
1)
0(
#885000
1#
1.
1O
0]
1\
11
02
1;
0'
1&
1Q
#890000
0#
0.
0_
1^
13
04
0)
1(
#895000
1#
1.
b11 b
1]
0\
0O
0;
01
12
1'
0&
0Q
#900000
0#
0.
1_
0^
03
14
1)
0(
#905000
1#
1.
1O
0]
1\
11
02
1;
0'
1&
1Q
#910000
0#
0.
0_
1^
13
04
0)
1(
#915000
1#
1.
b100 b
1]
0\
0O
0;
01
12
1'
0&
0Q
#920000
0#
0.
1_
0^
03
14
1)
0(
#925000
1#
1.
1O
0]
1\
11
02
1;
0'
1&
1Q
#930000
0#
0.
0_
1^
13
04
0)
1(
#935000
1#
1.
b101 b
1]
0\
0O
0;
01
12
1'
0&
0Q
#940000
0#
0.
1_
0^
03
14
1)
0(
#945000
1#
1.
1O
0]
1\
11
02
1;
0'
1&
1Q
#950000
0#
0.
0_
1^
13
04
0)
1(
#955000
1#
1.
b110 b
1]
0\
0O
0;
01
12
1'
0&
0Q
#960000
0#
0.
1_
0^
03
14
1)
0(
#965000
1#
1.
1O
0]
1\
11
02
1;
0'
1&
1Q
#970000
0#
0.
0_
1^
13
04
0)
1(
#975000
1#
1.
b111 b
1]
0\
0O
0;
01
12
1'
0&
0Q
#980000
0#
0.
1_
0^
03
14
1)
0(
#985000
1#
1.
1O
0]
1\
11
02
1;
0'
1&
1Q
#990000
0#
0.
0_
1^
13
04
0)
1(
#995000
1#
1.
b0 b
1]
0\
0O
0;
01
12
1'
0&
0Q
#1000000
0#
0.
1_
0^
03
14
1)
0(
#1005000
1#
1.
1O
0]
1\
11
02
1;
0'
1&
1Q
#1010000
0#
0.
0_
1^
13
04
0)
1(
#1015000
1#
1.
b1 b
1]
0\
0O
0;
01
12
1'
0&
0Q
#1020000
0#
0.
1_
0^
03
14
1)
0(
#1025000
1#
1.
1O
0]
1\
11
02
1;
0'
1&
1Q
#1030000
0#
0.
0_
1^
13
04
0)
1(
#1035000
1#
1.
b10 b
1]
0\
0O
0;
01
12
1'
0&
0Q
#1040000
0#
0.
1_
0^
03
14
1)
0(
#1045000
1#
1.
1O
0]
1\
11
02
1;
0'
1&
1Q
#1050000
0#
0.
0_
1^
13
04
0)
1(
#1055000
1#
1.
b11 b
1]
0\
0O
0;
01
12
1'
0&
0Q
#1060000
0#
0.
1_
0^
03
14
1)
0(
#1065000
1#
1.
1O
0]
1\
11
02
1;
0'
1&
1Q
#1070000
0#
0.
0_
1^
13
04
0)
1(
#1075000
1#
1.
b100 b
1]
0\
0O
0;
01
12
1'
0&
0Q
#1080000
0#
0.
1_
0^
03
14
1)
0(
#1085000
1#
1.
1O
0]
1\
11
02
1;
0'
1&
1Q
#1090000
0#
0.
0_
1^
13
04
0)
1(
#1095000
1#
1.
b101 b
1]
0\
0O
0;
01
12
1'
0&
0Q
#1100000
0#
0.
1_
0^
03
14
1)
0(
#1105000
1#
1.
1O
0]
1\
11
02
1;
0'
1&
1Q
#1110000
0#
0.
0_
1^
13
04
0)
1(
#1115000
1#
1.
b110 b
1]
0\
0O
0;
01
12
1'
0&
0Q
#1120000
0#
0.
1_
0^
03
14
1)
0(
#1125000
1#
1.
1O
0]
1\
11
02
1;
0'
1&
1Q
#1130000
0#
0.
0_
1^
13
04
0)
1(
#1135000
1#
1.
b111 b
1]
0\
0O
0;
01
12
1'
0&
0Q
#1140000
0#
0.
1_
0^
03
14
1)
0(
#1145000
1#
1.
1O
0]
1\
11
02
1;
0'
1&
1Q
#1150000
0#
0.
0_
1^
13
04
0)
1(
#1155000
1#
1.
b0 b
1]
0\
0O
0;
01
12
1'
0&
0Q
#1160000
0#
0.
1_
0^
03
14
1)
0(
#1165000
1#
1.
1O
0]
1\
11
02
1;
0'
1&
1Q
#1170000
0#
0.
0_
1^
13
04
0)
1(
#1175000
1#
1.
b1 b
1]
0\
0O
0;
01
12
1'
0&
0Q
#1180000
0#
0.
1_
0^
03
14
1)
0(
#1185000
1#
1.
1O
0]
1\
11
02
1;
0'
1&
1Q
#1190000
0#
0.
0_
1^
13
04
0)
1(
#1195000
1#
1.
b10 b
1]
0\
0O
0;
01
12
1'
0&
0Q
#1200000
0#
0.
1_
0^
03
14
1)
0(
#1205000
1#
1.
1O
0]
1\
11
02
1;
0'
1&
1Q
#1210000
0#
0.
0_
1^
13
04
0)
1(
#1215000
1#
1.
b11 b
1]
0\
0O
0;
01
12
1'
0&
0Q
#1220000
0#
0.
1_
0^
03
14
1)
0(
#1225000
1#
1.
1O
0]
1\
11
02
1;
0'
1&
1Q
#1230000
0#
0.
0_
1^
13
04
0)
1(
#1235000
1#
1.
b100 b
1]
0\
0O
0;
01
12
1'
0&
0Q
#1240000
0#
0.
1_
0^
03
14
1)
0(
#1245000
1#
1.
1O
0]
1\
11
02
1;
0'
1&
1Q
#1250000
0#
0.
0_
1^
13
04
0)
1(
#1255000
1#
1.
b101 b
1]
0\
0O
0;
01
12
1'
0&
0Q
#1260000
0#
0.
1_
0^
03
14
1)
0(
#1265000
1#
1.
1O
0]
1\
11
02
1;
0'
1&
1Q
#1270000
0#
0.
0_
1^
13
04
0)
1(
#1275000
1#
1.
b110 b
1]
0\
0O
0;
01
12
1'
0&
0Q
#1280000
0#
0.
1_
0^
03
14
1)
0(
#1285000
1#
1.
1O
0]
1\
11
02
1;
0'
1&
1Q
#1290000
0#
0.
0_
1^
13
04
0)
1(
#1295000
1#
1.
b111 b
1]
0\
0O
0;
01
12
1'
0&
0Q
#1300000
0#
0.
1_
0^
03
14
1)
0(
#1305000
1#
1.
1O
0]
1\
11
02
1;
0'
1&
1Q
#1310000
0#
0.
0_
1^
13
04
0)
1(
#1315000
1#
1.
b0 b
1]
0\
0O
0;
01
12
1'
0&
0Q
#1320000
0#
0.
1_
0^
03
14
1)
0(
#1325000
1#
1.
1O
0]
1\
11
02
1;
0'
1&
1Q
#1330000
0#
0.
0_
1^
13
04
0)
1(
#1335000
1#
1.
b1 b
1]
0\
0O
0;
01
12
1'
0&
0Q
#1340000
0#
0.
1_
0^
03
14
1)
0(
#1345000
1#
1.
1O
0]
1\
11
02
1;
0'
1&
1Q
#1350000
0#
0.
0_
1^
13
04
0)
1(
#1355000
1#
1.
b10 b
1]
0\
0O
0;
01
12
1'
0&
0Q
#1360000
0#
0.
1_
0^
03
14
1)
0(
#1365000
1#
1.
1O
0]
1\
11
02
1;
0'
1&
1Q
#1370000
0#
0.
0_
1^
13
04
0)
1(
#1375000
1#
1.
b11 b
1]
0\
0O
0;
01
12
1'
0&
0Q
#1380000
0#
0.
1_
0^
03
14
1)
0(
#1385000
1#
1.
1O
0]
1\
11
02
1;
0'
1&
1Q
#1390000
0#
0.
0_
1^
13
04
0)
1(
#1395000
1#
1.
b100 b
1]
0\
0O
0;
01
12
1'
0&
0Q
#1400000
0#
0.
1_
0^
03
14
1)
0(
#1405000
1#
1.
1O
0]
1\
11
02
1;
0'
1&
1Q
#1410000
0#
0.
0_
1^
13
04
0)
1(
#1415000
1#
1.
b101 b
1]
0\
0O
0;
01
12
1'
0&
0Q
#1420000
0#
0.
1_
0^
03
14
1)
0(
#1425000
1#
1.
1O
0]
1\
11
02
1;
0'
1&
1Q
#1430000
0#
0.
0_
1^
13
04
0)
1(
#1435000
1#
1.
b110 b
1]
0\
0O
0;
01
12
1'
0&
0Q
#1440000
0#
0.
1_
0^
03
14
1)
0(
#1445000
1#
1.
1O
0]
1\
11
02
1;
0'
1&
1Q
#1450000
0#
0.
0_
1^
13
04
0)
1(
#1455000
1#
1.
b111 b
1]
0\
0O
0;
01
12
1'
0&
0Q
#1460000
0#
0.
1_
0^
03
14
1)
0(
#1465000
1#
1.
1O
0]
1\
11
02
1;
0'
1&
1Q
#1470000
0#
0.
0_
1^
13
04
0)
1(
#1475000
1#
1.
b0 b
1]
0\
0O
0;
01
12
1'
0&
0Q
#1480000
0#
0.
1_
0^
03
14
1)
0(
#1485000
1#
1.
1O
0]
1\
11
02
1;
0'
1&
1Q
#1490000
0#
0.
0_
1^
13
04
0)
1(
#1495000
1#
1.
b1 b
1]
0\
0O
0;
01
12
1'
0&
0Q
#1500000
0#
0.
1_
0^
03
14
1)
0(
#1505000
1#
1.
1O
0]
1\
11
02
1;
0'
1&
1Q
#1510000
0#
0.
0_
1^
13
04
0)
1(
#1515000
1#
1.
b10 b
1]
0\
0O
0;
01
12
1'
0&
0Q
#1520000
0#
0.
1_
0^
03
14
1)
0(
#1525000
1#
1.
1O
0]
1\
11
02
1;
0'
1&
1Q
#1530000
0#
0.
0_
1^
13
04
0)
1(
#1535000
1#
1.
b11 b
1]
0\
0O
0;
01
12
1'
0&
0Q
#1540000
0#
0.
1_
0^
03
14
1)
0(
#1545000
1#
1.
1O
0]
1\
11
02
1;
0'
1&
1Q
#1550000
0#
0.
0_
1^
13
04
0)
1(
#1555000
1#
1.
b100 b
1]
0\
0O
0;
01
12
1'
0&
0Q
#1560000
0#
0.
1_
0^
03
14
1)
0(
#1565000
1#
1.
1O
0]
1\
11
02
1;
0'
1&
1Q
#1570000
0#
0.
0_
1^
13
04
0)
1(
#1575000
1#
1.
b101 b
1]
0\
0O
0;
01
12
1'
0&
0Q
#1580000
0#
0.
1_
0^
03
14
1)
0(
#1585000
1#
1.
1O
0]
1\
11
02
1;
0'
1&
1Q
#1590000
0#
0.
0_
1^
13
04
0)
1(
#1595000
1#
1.
b110 b
1]
0\
0O
0;
01
12
1'
0&
0Q
#1600000
0#
0.
1_
0^
03
14
1)
0(
#1605000
1#
1.
1O
0]
1\
11
02
1;
0'
1&
1Q
#1610000
0#
0.
0_
1^
13
04
0)
1(
#1615000
1#
1.
b111 b
1]
0\
0O
0;
01
12
1'
0&
0Q
#1620000
0#
0.
1_
0^
03
14
1)
0(
#1625000
1#
1.
1O
0]
1\
11
02
1;
0'
1&
1Q
#1630000
0#
0.
0_
1^
13
04
0)
1(
#1635000
1#
1.
b0 b
1]
0\
0O
0;
01
12
1'
0&
0Q
#1640000
0#
0.
1_
0^
03
14
1)
0(
#1645000
1#
1.
1O
0]
1\
11
02
1;
0'
1&
1Q
#1650000
0#
0.
0_
1^
13
04
0)
1(
#1655000
1#
1.
b1 b
1]
0\
0O
0;
01
12
1'
0&
0Q
#1660000
0#
0.
1_
0^
03
14
1)
0(
#1665000
1#
1.
1O
0]
1\
11
02
1;
0'
1&
1Q
#1670000
0#
0.
0_
1^
13
04
0)
1(
#1675000
1#
1.
b10 b
1]
0\
0O
0;
01
12
1'
0&
0Q
#1680000
0#
0.
1_
0^
03
14
1)
0(
#1685000
1#
1.
1O
0]
1\
11
02
1;
0'
1&
1Q
#1690000
0#
0.
0_
1^
13
04
0)
1(
#1695000
1#
1.
b11 b
1]
0\
0O
0;
01
12
1'
0&
0Q
#1700000
0#
0.
1_
0^
03
14
1)
0(
#1705000
1#
1.
1O
0]
1\
11
02
1;
0'
1&
1Q
#1710000
0#
0.
0_
1^
13
04
0)
1(
#1715000
1#
1.
b100 b
1]
0\
0O
0;
01
12
1'
0&
0Q
#1720000
0#
0.
1_
0^
03
14
1)
0(
#1725000
1#
1.
1O
0]
1\
11
02
1;
0'
1&
1Q
#1730000
0#
0.
0_
1^
13
04
0)
1(
#1735000
1#
1.
b101 b
1]
0\
0O
0;
01
12
1'
0&
0Q
#1740000
0#
0.
1_
0^
03
14
1)
0(
#1745000
1#
1.
1O
0]
1\
11
02
1;
0'
1&
1Q
#1750000
0#
0.
0_
1^
13
04
0)
1(
#1755000
1#
1.
b110 b
1]
0\
0O
0;
01
12
1'
0&
0Q
#1760000
0#
0.
1_
0^
03
14
1)
0(
#1765000
1#
1.
1O
0]
1\
11
02
1;
0'
1&
1Q
#1770000
0#
0.
0_
1^
13
04
0)
1(
#1775000
1#
1.
b111 b
1]
0\
0O
0;
01
12
1'
0&
0Q
#1780000
0#
0.
1_
0^
03
14
1)
0(
#1785000
1#
1.
1O
0]
1\
11
02
1;
0'
1&
1Q
#1790000
0#
0.
0_
1^
13
04
0)
1(
#1795000
1#
1.
b0 b
1]
0\
0O
0;
01
12
1'
0&
0Q
#1800000
0#
0.
1_
0^
03
14
1)
0(
#1805000
1#
1.
1O
0]
1\
11
02
1;
0'
1&
1Q
#1810000
0#
0.
0_
1^
13
04
0)
1(
#1815000
1#
1.
b1 b
1]
0\
0O
0;
01
12
1'
0&
0Q
#1820000
0#
0.
1_
0^
03
14
1)
0(
#1825000
1#
1.
1O
0]
1\
11
02
1;
0'
1&
1Q
#1830000
0#
0.
0_
1^
13
04
0)
1(
#1835000
1#
1.
b10 b
1]
0\
0O
0;
01
12
1'
0&
0Q
#1840000
0#
0.
1_
0^
03
14
1)
0(
#1845000
1#
1.
1O
0]
1\
11
02
1;
0'
1&
1Q
#1850000
0#
0.
0_
1^
13
04
0)
1(
#1855000
1#
1.
b11 b
1]
0\
0O
0;
01
12
1'
0&
0Q
#1860000
0#
0.
1_
0^
03
14
1)
0(
#1865000
1#
1.
1O
0]
1\
11
02
1;
0'
1&
1Q
#1870000
0#
0.
0_
1^
13
04
0)
1(
#1875000
1#
1.
b100 b
1]
0\
0O
0;
01
12
1'
0&
0Q
#1880000
0#
0.
1_
0^
03
14
1)
0(
#1885000
1#
1.
1O
0]
1\
11
02
1;
0'
1&
1Q
#1890000
0#
0.
0_
1^
13
04
0)
1(
#1895000
1#
1.
b101 b
1]
0\
0O
0;
01
12
1'
0&
0Q
#1900000
0#
0.
1_
0^
03
14
1)
0(
#1905000
1#
1.
1O
0]
1\
11
02
1;
0'
1&
1Q
#1910000
0#
0.
0_
1^
13
04
0)
1(
#1915000
1#
1.
b110 b
1]
0\
0O
0;
01
12
1'
0&
0Q
#1920000
0#
0.
1_
0^
03
14
1)
0(
#1925000
1#
1.
1O
0]
1\
11
02
1;
0'
1&
1Q
#1930000
0#
0.
0_
1^
13
04
0)
1(
#1935000
1#
1.
b111 b
1]
0\
0O
0;
01
12
1'
0&
0Q
#1940000
0#
0.
1_
0^
03
14
1)
0(
#1945000
1#
1.
1O
0]
1\
11
02
1;
0'
1&
1Q
#1950000
0#
0.
0_
1^
13
04
0)
1(
#1955000
1#
1.
b0 b
1]
0\
0O
0;
01
12
1'
0&
0Q
#1960000
0#
0.
1_
0^
03
14
1)
0(
#1965000
1#
1.
1O
0]
1\
11
02
1;
0'
1&
1Q
#1970000
0#
0.
0_
1^
13
04
0)
1(
#1975000
1#
1.
b1 b
1]
0\
0O
0;
01
12
1'
0&
0Q
#1980000
0#
0.
1_
0^
03
14
1)
0(
#1985000
1#
1.
1O
0]
1\
11
02
1;
0'
1&
1Q
