spi_core_tb.vcd
$date
	Wed Oct 08 09:34:57 2025
$end
$version
	QuestaSim Version 10.4c
$end
$timescale
	1ps
$end

$scope module tb $end
$var reg 1 ! button_0 $end
$var reg 1 " button_1 $end
$var reg 1 # clk_100 $end
$var reg 1 $ s_rst $end
$var reg 1 % a_rst $end
$var reg 1 & SCK_HP $end
$var reg 1 ' SCK_LP $end
$var reg 1 ( SCK_HN $end
$var reg 1 ) SCK_LN $end
$var reg 1 * CS $end
$var reg 1 + MOSI $end

$scope module dut $end
$var wire 1 , button_0 $end
$var wire 1 - button_1 $end
$var wire 1 . clk_100 $end
$var wire 1 / s_rst $end
$var wire 1 0 a_rst $end
$var reg 1 1 SCK_HP $end
$var reg 1 2 SCK_LP $end
$var reg 1 3 SCK_HN $end
$var reg 1 4 SCK_LN $end
$var reg 1 5 CS $end
$var reg 1 6 MOSI $end
$var reg 1 7 next_count_wire $end
$var reg 1 8 start_send_wire $end
$var reg 1 9 ready_wire $end
$var reg 1 : valid_wire $end
$var reg 1 ; sck_wire $end
$var reg 16 < data_wire [15:0] $end

$scope module handler $end
$var wire 1 , button_0 $end
$var wire 1 - button_1 $end
$var wire 1 . clk_100 $end
$var wire 1 / s_rst $end
$var wire 1 0 a_rst $end
$var reg 1 = next_count_o $end
$var reg 1 > start_send_o $end
$var reg 1 ? next_count $end
$var reg 1 @ start_send $end

$scope module sync_fd_button_0 $end
$var wire 1 . clk_i $end
$var wire 1 , data_i $end
$var reg 1 A data_sync_o $end
$var reg 1 B data_sync_pe_o $end
$var reg 1 C data_sync_ne_o $end
$var reg 3 D data_reg [2:0] $end
$upscope $end

$scope module sync_fd_button_1 $end
$var wire 1 . clk_i $end
$var wire 1 - data_i $end
$var reg 1 E data_sync_o $end
$var reg 1 F data_sync_pe_o $end
$var reg 1 G data_sync_ne_o $end
$var reg 3 H data_reg [2:0] $end
$upscope $end
$upscope $end

$scope module former $end
$var wire 1 . clk_100 $end
$var wire 1 / s_rst $end
$var wire 1 0 a_rst $end
$var wire 1 I next_count $end
$var wire 1 J start_send $end
$var wire 1 K ready $end
$var reg 1 L valid $end
$var reg 16 M data [15:0] $end
$var reg 16 N data_cnt [15:0] $end
$upscope $end

$scope module clk_divider $end
$var wire 1 . clk_100 $end
$var wire 1 / s_rst $end
$var wire 1 0 a_rst $end
$var wire 1 O sck_ready $end
$var reg 1 P sck_out $end
$var reg 1 Q clk_cnt [0:0] $end
$upscope $end

$scope module transmitter $end
$var wire 1 . clk_100 $end
$var wire 1 / s_rst $end
$var wire 1 0 a_rst $end
$var wire 1 R sck_in $end
$var wire 1 S valid $end
$var wire 1 T data_in [15] $end
$var wire 1 U data_in [14] $end
$var wire 1 V data_in [13] $end
$var wire 1 W data_in [12] $end
$var wire 1 X data_in [11] $end
$var wire 1 Y data_in [10] $end
$var wire 1 Z data_in [9] $end
$var wire 1 [ data_in [8] $end
$var wire 1 \ data_in [7] $end
$var wire 1 ] data_in [6] $end
$var wire 1 ^ data_in [5] $end
$var wire 1 _ data_in [4] $end
$var wire 1 ` data_in [3] $end
$var wire 1 a data_in [2] $end
$var wire 1 b data_in [1] $end
$var wire 1 c data_in [0] $end
$var reg 1 d ready $end
$var reg 1 e SCK_HP $end
$var reg 1 f SCK_LP $end
$var reg 1 g SCK_HN $end
$var reg 1 h SCK_LN $end
$var reg 1 i CS $end
$var reg 1 j MOSI $end
$var reg 5 k bit_cnt [4:0] $end
$var reg 16 l shift_reg [15:0] $end
$var reg 1 m sck_in_d $end
$var reg 2 n state [1:0] $end
$var reg 2 o next_state [1:0] $end
$var wire 1 p sck_en $end
$upscope $end
$upscope $end
$upscope $end
$enddefinitions $end
#0
$dumpvars
0!
0"
0#
1$
1%
0&
0'
1(
1)
1*
z+
01
02
13
14
15
z6
07
08
19
0:
0;
b0 <
0=
0>
x?
x@
xA
xB
xC
bx D
xE
xF
xG
bx H
0L
b0 M
b0 N
0P
b0 Q
1d
0e
0f
1g
1h
1i
zj
b0 k
b0 l
0m
b0 n
b0 o
0p
10
1/
0.
0-
0,
0c
0b
0a
0`
0_
0^
0]
0\
0[
0Z
0Y
0X
0W
0V
0U
0T
0S
0R
1O
1K
0J
0I
$end
#5000
1#
1.
bx0 D
bx0 H
#10000
0#
0.
#15000
1#
1.
bx00 H
bx00 D
0C
0G
#20000
0%
0#
00
0.
1e
0h
04
11
1&
0)
#25000
1#
1.
b0 D
b0 H
0E
0F
0A
0B
0?
0@
#30000
0#
0.
#35000
1#
1.
#40000
0$
0#
0/
0.
#45000
1#
1.
#50000
0#
0.
#55000
1#
1.
#60000
0#
0.
#65000
1#
1.
#70000
0#
0.
#75000
1#
1.
#80000
0#
0.
#85000
1#
1.
#90000
1!
0#
1,
0.
#95000
1#
1.
b1 D
#100000
0!
0#
0,
0.
#105000
1#
1.
b0 D
b10 D
1C
#110000
0#
0.
#115000
1#
1.
b0 D
b100 D
1A
1B
0C
1?
#120000
0#
0.
#125000
1#
1.
1=
b0 D
0A
0B
17
0?
1I
#130000
0#
0.
#135000
1#
1.
b1 N
0=
07
0I
#140000
0#
0.
#145000
1#
1.
#150000
0#
0.
#155000
1#
1.
#160000
0#
0.
#165000
1#
1.
#170000
0#
0.
#175000
1#
1.
#180000
0#
0.
#185000
1#
1.
#190000
0#
0.
#195000
1#
1.
#200000
0#
0.
#205000
1#
1.
#210000
0#
0.
#215000
1#
1.
#220000
0#
0.
#225000
1#
1.
#230000
0#
0.
#235000
1#
1.
#240000
0#
0.
#245000
1#
1.
#250000
0#
0.
#255000
1#
1.
#260000
0#
0.
#265000
1#
1.
#270000
0#
0.
#275000
1#
1.
#280000
0#
0.
#285000
1#
1.
#290000
0#
0.
#295000
1#
1.
#300000
1"
0#
1-
0.
#305000
1#
1.
b1 H
#310000
0"
0#
0-
0.
#315000
1#
1.
b0 H
b10 H
1G
#320000
0#
0.
#325000
1#
1.
b0 H
b100 H
1E
1F
0G
1@
#330000
0#
0.
#335000
1#
1.
1>
b0 H
0E
0F
18
0@
1J
#340000
0#
0.
#345000
1#
1.
1L
1:
1S
0>
b1 o
08
0J
#350000
0#
0.
#355000
1#
1.
0L
0:
0S
b1 n
b1 M
b0 o
b1 <
1c
b10 o
#360000
0#
0.
#365000
1#
1.
b10 n
b11 o
#370000
0#
0.
#375000
1#
1.
b11 n
b1 l
0d
09
0K
0O
#380000
0#
0.
#385000
1#
1.
1P
1;
1R
1p
#390000
0#
0.
0e
1h
14
01
0&
1)
#395000
1#
1.
0i
b10 l
0j
b1 k
1m
1f
0g
0P
0p
0;
03
12
06
05
0*
0+
1'
0(
0R
#400000
0#
0.
1e
0h
04
11
1&
0)
#405000
1#
1.
1P
0f
1g
0m
13
02
1;
0'
1(
1R
1p
#410000
0#
0.
0e
1h
14
01
0&
1)
#415000
1#
1.
b100 l
b10 k
1m
1f
0g
0P
0p
0;
03
12
1'
0(
0R
#420000
0#
0.
1e
0h
04
11
1&
0)
#425000
1#
1.
1P
0f
1g
0m
13
02
1;
0'
1(
1R
1p
#430000
0#
0.
0e
1h
14
01
0&
1)
#435000
1#
1.
b1000 l
b11 k
1m
1f
0g
0P
0p
0;
03
12
1'
0(
0R
#440000
0#
0.
1e
0h
04
11
1&
0)
#445000
1#
1.
1P
0f
1g
0m
13
02
1;
0'
1(
1R
1p
#450000
0#
0.
0e
1h
14
01
0&
1)
#455000
1#
1.
b10000 l
b100 k
1m
1f
0g
0P
0p
0;
03
12
1'
0(
0R
#460000
0#
0.
1e
0h
04
11
1&
0)
#465000
1#
1.
1P
0f
1g
0m
13
02
1;
0'
1(
1R
1p
#470000
0#
0.
0e
1h
14
01
0&
1)
#475000
1#
1.
b100000 l
b101 k
1m
1f
0g
0P
0p
0;
03
12
1'
0(
0R
#480000
0#
0.
1e
0h
04
11
1&
0)
#485000
1#
1.
1P
0f
1g
0m
13
02
1;
0'
1(
1R
1p
#490000
0#
0.
0e
1h
14
01
0&
1)
#495000
1#
1.
b1000000 l
b110 k
1m
1f
0g
0P
0p
0;
03
12
1'
0(
0R
#500000
0#
0.
1e
0h
04
11
1&
0)
#505000
1#
1.
1P
0f
1g
0m
13
02
1;
0'
1(
1R
1p
#510000
0#
0.
0e
1h
14
01
0&
1)
#515000
1#
1.
b10000000 l
b111 k
1m
1f
0g
0P
0p
0;
03
12
1'
0(
0R
#520000
0#
0.
1e
0h
04
11
1&
0)
#525000
1#
1.
1P
0f
1g
0m
13
02
1;
0'
1(
1R
1p
#530000
0#
0.
0e
1h
14
01
0&
1)
#535000
1#
1.
b100000000 l
b1000 k
1m
1f
0g
0P
0p
0;
03
12
1'
0(
0R
#540000
0#
0.
1e
0h
04
11
1&
0)
#545000
1#
1.
1P
0f
1g
0m
13
02
1;
0'
1(
1R
1p
#550000
0#
0.
0e
1h
14
01
0&
1)
#555000
1#
1.
b1000000000 l
b1001 k
1m
1f
0g
0P
0p
0;
03
12
1'
0(
0R
#560000
0#
0.
1e
0h
04
11
1&
0)
#565000
1#
1.
1P
0f
1g
0m
13
02
1;
0'
1(
1R
1p
#570000
0#
0.
0e
1h
14
01
0&
1)
#575000
1#
1.
b10000000000 l
b1010 k
1m
1f
0g
0P
0p
0;
03
12
1'
0(
0R
#580000
0#
0.
1e
0h
04
11
1&
0)
#585000
1#
1.
1P
0f
1g
0m
13
02
1;
0'
1(
1R
1p
#590000
0#
0.
0e
1h
14
01
0&
1)
#595000
1#
1.
b100000000000 l
b1011 k
1m
1f
0g
0P
0p
0;
03
12
1'
0(
0R
#600000
0#
0.
1e
0h
04
11
1&
0)
#605000
1#
1.
1P
0f
1g
0m
13
02
1;
0'
1(
1R
1p
#610000
0#
0.
0e
1h
14
01
0&
1)
#615000
1#
1.
b1000000000000 l
b1100 k
1m
1f
0g
0P
0p
0;
03
12
1'
0(
0R
#620000
0#
0.
1e
0h
04
11
1&
0)
#625000
1#
1.
1P
0f
1g
0m
13
02
1;
0'
1(
1R
1p
#630000
0#
0.
0e
1h
14
01
0&
1)
#635000
1#
1.
b10000000000000 l
b1101 k
1m
1f
0g
0P
0p
0;
03
12
1'
0(
0R
#640000
0#
0.
1e
0h
04
11
1&
0)
#645000
1#
1.
1P
0f
1g
0m
13
02
1;
0'
1(
1R
1p
#650000
0#
0.
0e
1h
14
01
0&
1)
#655000
1#
1.
b100000000000000 l
b1110 k
1m
1f
0g
0P
0p
0;
03
12
1'
0(
0R
#660000
0#
0.
1e
0h
04
11
1&
0)
#665000
1#
1.
1P
0f
1g
0m
13
02
1;
0'
1(
1R
1p
#670000
0#
0.
0e
1h
14
01
0&
1)
#675000
1#
1.
b1000000000000000 l
b1111 k
1m
1f
0g
0P
0p
0;
03
12
1'
0(
0R
#680000
0#
0.
1e
0h
04
11
1&
0)
#685000
1#
1.
1P
0f
1g
0m
13
02
1;
0'
1(
1R
1p
#690000
0#
0.
0e
1h
14
01
0&
1)
#695000
1#
1.
b0 l
1j
b10000 k
1m
1f
0g
0P
0p
0;
03
12
16
1+
1'
0(
0R
#700000
0#
0.
1e
0h
04
11
1&
0)
#705000
1#
1.
1P
0f
1g
0m
13
02
1;
0'
1(
1R
1p
#710000
0#
0.
0e
1h
14
01
0&
1)
#715000
1#
1.
zj
b0 k
1d
1i
1m
1f
0g
0P
0p
0;
03
12
15
19
z6
z+
1*
1'
0(
0R
1K
1O
b0 o
#720000
0#
0.
1e
0h
04
11
1&
0)
#725000
1#
1.
b0 n
0f
1g
0m
13
02
0'
1(
#730000
0#
0.
#735000
1#
1.
#740000
0#
0.
#745000
1#
1.
#750000
0#
0.
#755000
1#
1.
#760000
0#
0.
#765000
1#
1.
#770000
0#
0.
#775000
1#
1.
#780000
0#
0.
#785000
1#
1.
#790000
0#
0.
#795000
1#
1.
#800000
0#
0.
#805000
1#
1.
#810000
0#
0.
#815000
1#
1.
#820000
0#
0.
#825000
1#
1.
#830000
0#
0.
#835000
1#
1.
#840000
0#
0.
#845000
1#
1.
#850000
0#
0.
#855000
1#
1.
#860000
0#
0.
#865000
1#
1.
#870000
0#
0.
#875000
1#
1.
#880000
0#
0.
#885000
1#
1.
#890000
0#
0.
#895000
1#
1.
#900000
0#
0.
#905000
1#
1.
#910000
1!
0#
1,
0.
#915000
1#
1.
b1 D
#920000
0#
0.
#925000
1#
1.
b11 D
1C
#930000
0#
0.
#935000
1#
1.
b111 D
1A
0C
#940000
0#
0.
#945000
1#
1.
#950000
0#
0.
#955000
1#
1.
#960000
0!
0#
0,
0.
#965000
1#
1.
b110 D
#970000
0#
0.
#975000
1#
1.
b100 D
1B
1?
#980000
0#
0.
#985000
1#
1.
1=
b0 D
0A
0B
17
0?
1I
#990000
0#
0.
#995000
1#
1.
b10 N
0=
07
0I
#1000000
0#
0.
#1005000
1#
1.
#1010000
0#
0.
#1015000
1#
1.
#1020000
0#
0.
#1025000
1#
1.
#1030000
0#
0.
#1035000
1#
1.
#1040000
0#
0.
#1045000
1#
1.
#1050000
0#
0.
#1055000
1#
1.
#1060000
0#
0.
#1065000
1#
1.
#1070000
0#
0.
#1075000
1#
1.
#1080000
1"
0#
1-
0.
#1085000
1#
1.
b1 H
#1090000
0#
0.
#1095000
1#
1.
b11 H
1G
#1100000
0"
0#
0-
0.
#1105000
1#
1.
b10 H
b110 H
1E
0G
#1110000
0#
0.
#1115000
1#
1.
b100 H
1F
1@
#1120000
0#
0.
#1125000
1#
1.
1>
b0 H
0E
0F
18
0@
1J
#1130000
0#
0.
#1135000
1#
1.
1L
1:
1S
0>
b1 o
08
0J
#1140000
0#
0.
#1145000
1#
1.
0L
0:
0S
b1 n
b10 M
b0 o
b10 <
0c
1b
b10 o
#1150000
0#
0.
#1155000
1#
1.
b10 n
b11 o
#1160000
0#
0.
#1165000
1#
1.
b11 n
b10 l
0d
09
0K
0O
#1170000
0#
0.
#1175000
1#
1.
1P
1;
1R
1p
#1180000
0#
0.
0e
1h
14
01
0&
1)
#1185000
1#
1.
0i
b100 l
0j
b1 k
1m
1f
0g
0P
0p
0;
03
12
06
05
0*
0+
1'
0(
0R
#1190000
0#
0.
1e
0h
04
11
1&
0)
#1195000
1#
1.
1P
0f
1g
0m
13
02
1;
0'
1(
1R
1p
#1200000
0#
0.
0e
1h
14
01
0&
1)
#1205000
1#
1.
b1000 l
b10 k
1m
1f
0g
0P
0p
0;
03
12
1'
0(
0R
#1210000
0#
0.
1e
0h
04
11
1&
0)
#1215000
1#
1.
1P
0f
1g
0m
13
02
1;
0'
1(
1R
1p
#1220000
0#
0.
0e
1h
14
01
0&
1)
#1225000
1#
1.
b10000 l
b11 k
1m
1f
0g
0P
0p
0;
03
12
1'
0(
0R
#1230000
0#
0.
1e
0h
04
11
1&
0)
#1235000
1#
1.
1P
0f
1g
0m
13
02
1;
0'
1(
1R
1p
#1240000
0#
0.
0e
1h
14
01
0&
1)
#1245000
1#
1.
b100000 l
b100 k
1m
1f
0g
0P
0p
0;
03
12
1'
0(
0R
#1250000
0#
0.
1e
0h
04
11
1&
0)
#1255000
1#
1.
1P
0f
1g
0m
13
02
1;
0'
1(
1R
1p
#1260000
0#
0.
0e
1h
14
01
0&
1)
#1265000
1#
1.
b1000000 l
b101 k
1m
1f
0g
0P
0p
0;
03
12
1'
0(
0R
#1270000
0#
0.
1e
0h
04
11
1&
0)
#1275000
1#
1.
1P
0f
1g
0m
13
02
1;
0'
1(
1R
1p
#1280000
0#
0.
0e
1h
14
01
0&
1)
#1285000
1#
1.
b10000000 l
b110 k
1m
1f
0g
0P
0p
0;
03
12
1'
0(
0R
#1290000
0#
0.
1e
0h
04
11
1&
0)
#1295000
1#
1.
1P
0f
1g
0m
13
02
1;
0'
1(
1R
1p
#1300000
0#
0.
0e
1h
14
01
0&
1)
#1305000
1#
1.
b100000000 l
b111 k
1m
1f
0g
0P
0p
0;
03
12
1'
0(
0R
#1310000
0#
0.
1e
0h
04
11
1&
0)
#1315000
1#
1.
1P
0f
1g
0m
13
02
1;
0'
1(
1R
1p
#1320000
0#
0.
0e
1h
14
01
0&
1)
#1325000
1#
1.
b1000000000 l
b1000 k
1m
1f
0g
0P
0p
0;
03
12
1'
0(
0R
#1330000
0#
0.
1e
0h
04
11
1&
0)
#1335000
1#
1.
1P
0f
1g
0m
13
02
1;
0'
1(
1R
1p
#1340000
0#
0.
0e
1h
14
01
0&
1)
#1345000
1#
1.
b10000000000 l
b1001 k
1m
1f
0g
0P
0p
0;
03
12
1'
0(
0R
#1350000
0#
0.
1e
0h
04
11
1&
0)
#1355000
1#
1.
1P
0f
1g
0m
13
02
1;
0'
1(
1R
1p
#1360000
0#
0.
0e
1h
14
01
0&
1)
#1365000
1#
1.
b100000000000 l
b1010 k
1m
1f
0g
0P
0p
0;
03
12
1'
0(
0R
#1370000
0#
0.
1e
0h
04
11
1&
0)
#1375000
1#
1.
1P
0f
1g
0m
13
02
1;
0'
1(
1R
1p
#1380000
0#
0.
0e
1h
14
01
0&
1)
#1385000
1#
1.
b1000000000000 l
b1011 k
1m
1f
0g
0P
0p
0;
03
12
1'
0(
0R
#1390000
0#
0.
1e
0h
04
11
1&
0)
#1395000
1#
1.
1P
0f
1g
0m
13
02
1;
0'
1(
1R
1p
#1400000
0#
0.
0e
1h
14
01
0&
1)
#1405000
1#
1.
b10000000000000 l
b1100 k
1m
1f
0g
0P
0p
0;
03
12
1'
0(
0R
#1410000
0#
0.
1e
0h
04
11
1&
0)
#1415000
1#
1.
1P
0f
1g
0m
13
02
1;
0'
1(
1R
1p
#1420000
0#
0.
0e
1h
14
01
0&
1)
#1425000
1#
1.
b100000000000000 l
b1101 k
1m
1f
0g
0P
0p
0;
03
12
1'
0(
0R
#1430000
0#
0.
1e
0h
04
11
1&
0)
#1435000
1#
1.
1P
0f
1g
0m
13
02
1;
0'
1(
1R
1p
#1440000
0#
0.
0e
1h
14
01
0&
1)
#1445000
1#
1.
b1000000000000000 l
b1110 k
1m
1f
0g
0P
0p
0;
03
12
1'
0(
0R
#1450000
0#
0.
1e
0h
04
11
1&
0)
#1455000
1#
1.
1P
0f
1g
0m
13
02
1;
0'
1(
1R
1p
#1460000
0#
0.
0e
1h
14
01
0&
1)
#1465000
1#
1.
b0 l
1j
b1111 k
1m
1f
0g
0P
0p
0;
03
12
16
1+
1'
0(
0R
#1470000
0#
0.
1e
0h
04
11
1&
0)
#1475000
1#
1.
1P
0f
1g
0m
13
02
1;
0'
1(
1R
1p
#1480000
0#
0.
0e
1h
14
01
0&
1)
#1485000
1#
1.
0j
b10000 k
1m
1f
0g
0P
0p
0;
03
12
06
0+
1'
0(
0R
#1490000
0#
0.
1e
0h
04
11
1&
0)
#1495000
1#
1.
1P
0f
1g
0m
13
02
1;
0'
1(
1R
1p
#1500000
0#
0.
0e
1h
14
01
0&
1)
#1505000
1#
1.
zj
b0 k
1d
1i
1m
1f
0g
0P
0p
0;
03
12
15
19
z6
z+
1*
1'
0(
0R
1K
1O
b0 o
#1510000
0#
0.
1e
0h
04
11
1&
0)
#1515000
1#
1.
b0 n
0f
1g
0m
13
02
0'
1(
#1520000
0#
0.
#1525000
1#
1.
#1530000
0#
0.
#1535000
1#
1.
#1540000
0#
0.
#1545000
1#
1.
#1550000
0#
0.
#1555000
1#
1.
#1560000
0#
0.
#1565000
1#
1.
#1570000
0#
0.
#1575000
1#
1.
#1580000
0#
0.
#1585000
1#
1.
#1590000
0#
0.
#1595000
1#
1.
#1600000
1!
0#
1,
0.
#1605000
1#
1.
b1 D
#1610000
0#
0.
#1615000
1#
1.
b11 D
1C
#1620000
0!
0#
0,
0.
#1625000
1#
1.
b10 D
b110 D
1A
0C
#1630000
0#
0.
#1635000
1#
1.
b100 D
1B
1?
#1640000
0#
0.
#1645000
1#
1.
1=
b0 D
0A
0B
17
0?
1I
#1650000
0#
0.
#1655000
1#
1.
b11 N
0=
07
0I
